{
  "requests": [
    {
      "subject": "Site",
      "text": "Mne. Nuzhen. SITE!!!!!111!!!1",
      "urgency": "high",
      "date": "2016-03-16T19:49:32.349Z",
      "project": "blog",
      "id": 1
    },
    {
      "subject": "Raz",
      "text": "Dva-s",
      "urgency": "normal",
      "date": "2016-03-16T19:49:53.025Z",
      "project": "emarket",
      "id": 2
    },
    {
      "subject": "Kroliki",
      "text": "Mne nuzhen site s krolami :3",
      "urgency": "low",
      "date": "2016-03-16T19:51:42.489Z",
      "project": "gallery",
      "id": 3
    },
    {
      "subject": "Puhlya",
      "text": "Puhlya. Puhlya! PUHLYA!!",
      "urgency": "high",
      "date": "2016-03-17T17:09:35.425Z",
      "project": "blog",
      "id": 4
    },
    {
      "subject": "Lorem ipsum",
      "text": "Lorem ipsum dolor sit amet, consectetur adipisicing elit. Libero quasi sit velit alias reprehenderit explicabo delectus voluptatum, omnis eos, animi dolore natus sapiente itaque repellendus iusto eius unde illum porro?\nInventore earum ipsa ab nesciunt fugiat reprehenderit ad commodi quidem, distinctio sit. Molestiae aliquam, libero est debitis maxime ad veniam non vero, accusamus reiciendis eos, perferendis porro labore eveniet tempore.\nBlanditiis sint ipsa expedita iure nemo dolorem rerum laboriosam rem ad a voluptatibus doloribus ipsam optio deserunt temporibus, itaque earum eaque? Sequi quasi hic impedit, soluta culpa doloremque saepe natus.",
      "urgency": "low",
      "date": "2016-03-17T19:13:23.761Z",
      "project": "gallery",
      "id": 5
    }
  ]
}